<svg width="458" height="375" viewBox="0 0 458 375" fill="none" xmlns="http://www.w3.org/2000/svg">
<path fill-rule="evenodd" clip-rule="evenodd" d="M0.225658 51.2035C-0.544382 56.239 1.44287 61.2926 5.75154 65.2561C10.0683 69.2245 16.3528 71.7803 23.2328 72.3653C30.1127 72.9502 37.0291 71.5169 42.4715 68.3782C47.2463 65.6251 161.04 1.68888 299.485 69.3127C357.404 97.6022 412.212 106.472 458 106.553V68.3438C419.912 68.2112 375.639 60.4362 328.51 37.4153C270.339 9.00014 215.299 0.176325 169.386 0.173585C169.372 0.173584 169.358 0.173584 169.343 0.173585C144.992 0.175038 123.209 2.65769 104.89 6.01391C70.609 12.1112 38.3122 23.1162 9.85915 38.3953C4.46016 41.5618 0.995698 46.168 0.225658 51.2035ZM458 202.526C419.912 202.393 375.64 194.618 328.51 171.597C239.464 128.107 157.753 130.508 104.89 140.198C70.609 146.295 38.3122 157.3 9.85915 172.579C4.43207 175.748 0.945228 180.366 0.1657 185.418C0.0548504 186.137 3.68986e-05 186.856 0 187.572C0 187.572 0 187.573 0 187.573C0.000222557 191.892 1.9932 196.108 5.70248 199.519C10.0272 203.495 16.3306 206.05 23.2261 206.621C30.1217 207.192 37.0444 205.733 42.4715 202.564C47.2463 199.809 161.04 135.87 299.485 203.499C357.404 231.786 412.208 240.656 458 240.737V202.526ZM458 336.708C419.912 336.576 375.64 328.801 328.51 305.781C239.464 262.283 157.753 264.694 104.89 274.382C70.609 280.479 38.3122 291.484 9.85915 306.763C4.43207 309.932 0.945227 314.55 0.1657 319.602C0.0548131 320.321 6.23297e-08 321.04 6.23297e-08 321.756C6.23297e-08 326.075 1.99299 330.292 5.70248 333.703C10.0272 337.679 16.3306 340.234 23.2261 340.805C30.1217 341.376 37.0444 339.917 42.4715 336.748C47.2463 333.993 161.04 270.052 299.485 337.683C357.404 365.97 412.208 374.839 458 374.921V336.708Z" fill="#EEEDED"/>
</svg>
