<svg width="20" height="20" viewBox="0 0 20 20" fill="none" xmlns="http://www.w3.org/2000/svg">
<circle cx="10" cy="10" r="10" fill="#BBBBC2"/>
<path d="M10 5L10 15" stroke="white" stroke-width="1.5" stroke-linecap="round"/>
<path d="M5 10L15 10" stroke="white" stroke-width="1.5" stroke-linecap="round"/>
</svg>
