<svg width="32" height="32" viewBox="0 0 32 32" fill="none" xmlns="http://www.w3.org/2000/svg">
<path d="M26.4798 26.4826C27.0694 26.3598 27.4204 25.7441 27.1455 25.2082C26.3485 23.6542 25.0252 22.2887 23.3049 21.2621C21.2092 20.0113 18.6414 19.3334 15.9998 19.3334C13.3582 19.3334 10.7904 20.0113 8.69467 21.2621C6.97442 22.2887 5.65115 23.6542 4.85408 25.2082C4.57919 25.744 4.93022 26.3597 5.51983 26.4826L7.83894 26.9659C13.2217 28.0877 18.7779 28.0877 24.1607 26.9659L26.4798 26.4826Z" fill="white"/>
<path d="M22.3333 10.6667C22.3333 14.3486 19.3486 17.3333 15.6667 17.3333C11.9848 17.3333 9 14.3486 9 10.6667C9 6.98477 11.9848 4 15.6667 4C19.3486 4 22.3333 6.98477 22.3333 10.6667Z" fill="white"/>
</svg>
